Lab 2/Lab 2/simulation/qsim/Lab2.msim.vcd
$comment
	File created using the following command:
		vcd file Lab2.msim.vcd -direction
$end
$date
	Tue Oct 05 19:41:22 2021
$end
$version
	ModelSim Version 10.1d
$end
$timescale
	1ps
$end
$scope module Lab2_vlg_vec_tst $end
$var reg 1 ! a $end
$var reg 1 " b $end
$var reg 1 # c $end
$var reg 1 $ d $end
$var wire 1 % f $end
$var wire 1 & sampler $end
$scope module i1 $end
$var wire 1 ' gnd $end
$var wire 1 ( vcc $end
$var wire 1 ) unknown $end
$var tri1 1 * devclrn $end
$var tri1 1 + devpor $end
$var tri1 1 , devoe $end
$var wire 1 - b~combout $end
$var wire 1 . c~combout $end
$var wire 1 / a~combout $end
$var wire 1 0 d~combout $end
$var wire 1 1 inst6~0_combout $end
$upscope $end
$upscope $end
$enddefinitions $end
#0
$dumpvars
0!
0"
0#
0$
0%
x&
0'
1(
x)
1*
1+
1,
0-
0.
0/
00
01
$end
#20000
1$
10
0&
#40000
1#
0$
1.
00
1&
#60000
1$
10
0&
11
1%
#80000
1"
0#
0$
1-
0.
00
1&
01
0%
#100000
1$
10
0&
#120000
1#
0$
1.
00
1&
#140000
1$
10
0&
#160000
1!
0"
0#
0$
1/
0-
0.
00
1&
11
1%
#180000
1$
10
0&
#200000
1#
0$
1.
00
1&
01
0%
#220000
1$
10
0&
#240000
1"
0#
0$
1-
0.
00
1&
11
1%
#260000
1$
10
0&
#280000
1#
0$
1.
00
1&
#300000
1$
10
0&
